{
  "conversations" : {
    "5562F4D7-E64F-4EA1-BB82-4E56B2E2ABA5" : {
      "location" : {
        "lat" : 0,
        "lon" : 0
      },
      "num_participants" : 0,
      "owner_user_id" : "2B1C1D3E-AAD7-4B9C-AD38-C12FB68147B3",
      "posts" : {
        "0F29A20E-2730-4743-B8B6-9EA475475583" : {
          "content" : "Hello",
          "num_likes" : 0,
          "post_time" : "2017-01-26 01:46:53 +0000",
          "rating" : 0,
          "user_id" : "2B1C1D3E-AAD7-4B9C-AD38-C12FB68147B3"
        },
        "0F29A20E-2730-4743-B8B6-9EA475475584" : {
          "content" : "Hey",
          "num_likes" : 0,
          "post_time" : "2017-01-26 01:46:53 +0000",
          "rating" : 0,
          "user_id" : "2B1C1D3E-AAD7-4B9C-AD38-C12FB68147B3"
        }
      },
      "start_time" : "2017-01-26 01:46:53 +0000",
      "title" : "Conversation 1"
    }
  },
  "users" : {
    "B43034BE-3F3C-4B0F-93D0-06490547EBD8" : {
      "device_id" : "C4877689-F003-40B2-8F11-0AC9E447D8CD",
      "num_flagged" : 0,
      "saved_conversations" : ""
    }
  }
}
