{
  "images" : [
    {
      "idiom" : "iphone",
      "filename" : "Number Bubble Seafoam.pdf",
      "compression-type" : "lossless"
    }
  ],
  "info" : {
    "version" : 1,
    "author" : "xcode"
  }
}